Getting to know your data 1
…
---

## Pay attention when reading in datasets

.small-font[

```r
NCbirths <- read_csv("https://wilkelab.org/DSC385/datasets/NCbirths.csv")

NCbirths
```

```
# A tibble: 1,450 × 15
      ID Plural   Sex MomAge Weeks Marital RaceMom HispMom Gained Smoke
   <dbl>  <dbl> <dbl>  <dbl> <dbl>   <dbl>   <dbl> <chr>   <chr>  <dbl>
 1     1      1     1     32    40       1       1 N       38         0
 2     2      1     2     32    37       1       1 N       34         0
 3     3      1     1     27    39       1       1 N       12         0
 4     4      1     1     27    39       1       1 N       15         0
 5     5      1     1     25    39       1       1 N       32         0
 6     6      1     1     28    43       1       1 N       32         0
 7     7      1     2     25    39       1       1 N       75         0
 8     8      1     2     15    42       2       1 N       25         0
 9     9      1     2     21    39       1       1 N       28         0
10    10      1     2     27    40       2       1 N       37         0
# … with 1,440 more rows, and 5 more variables: BirthWeightOz <dbl>,
#   BirthWeightGm <dbl>, Low <dbl>, Premie <dbl>, MomRace <chr>
```
…
Specify which data values should be considered to be missing:

.small-font[

```r
NCbirths <- read_csv(
  "https://wilkelab.org/DSC385/datasets/NCbirths.csv",
  na = c("", "NA", "#N/A")
)

NCbirths
```

```
# A tibble: 1,450 × 15
      ID Plural   Sex MomAge Weeks Marital RaceMom HispMom Gained Smoke
   <dbl>  <dbl> <dbl>  <dbl> <dbl>   <dbl>   <dbl> <chr>    <dbl> <dbl>
 1     1      1     1     32    40       1       1 N           38     0
 2     2      1     2     32    37       1       1 N           34     0
 3     3      1     1     27    39       1       1 N           12     0
 4     4      1     1     27    39       1       1 N           15     0
 5     5      1     1     25    39       1       1 N           32     0
 6     6      1     1     28    43       1       1 N           32     0
 7     7      1     2     25    39       1       1 N           75     0
 8     8      1     2     15    42       2       1 N           25     0
 9     9      1     2     21    39       1       1 N           28     0
10    10      1     2     27    40       2       1 N           37     0
# … with 1,440 more rows, and 5 more variables: BirthWeightOz <dbl>,
#   BirthWeightGm <dbl>, Low <dbl>, Premie <dbl>, MomRace <chr>
```
…
